-------------------------------------------------------------------------------
Test set: com.companyname.bank.CalcEndpointTest
-------------------------------------------------------------------------------
Tests run: 1, Failures: 0, Errors: 0, Skipped: 0, Time elapsed: 5.359 sec - in com.companyname.bank.CalcEndpointTest
